{
  "projectName" : "Triticum_6sources",
  "moduleFile" : "in/agronomicTaxon_2.ttl",
  "modulePrefix" : [
  	{
  		"prefix" : "dc",
  		"uri" : "http://purl.org/dc/elements/1.1/"
  	},
  	{
  		"prefix" : "dcterms",
  		"uri" : "http://purl.org/dc/terms/"
  	},
  	{
  		"prefix" : "AgronomicTaxon",
		"uri" : "http://ontology.irstea.fr/AgronomicTaxon#"
  	},
  	{
  		"prefix" : "taxon",
  		"uri" : "http://ontology.irstea.fr/agronomictaxon/core#"
  	},
  	{
  		"prefix" : "skos",
  		"uri" :"http://www.w3.org/2004/02/skos/core#"
  	}
  ],
  "sources" :
  [
    {
      "name" : "Agrovoc",
      "baseUri" : "http://ontology.irstea.fr/agronomictaxon/SKB/Agrovoc#",
      "spIn" : "http://localhost:3030/Agrovoc_SKB/",
      "sourceQuality" : 0.6
    },
    {
      "name" : "TaxRef",
      "baseUri" : "http://ontology.irstea.fr/agronomictaxon/SKB/TaxRef#",
      "spIn" : "http://localhost:3030/TaxRef_SKB/",
      "sourceQuality" : 0.9
    },
    {
      "name" : "NCBI",
      "baseUri" : "http://ontology.irstea.fr/agronomictaxon/SKB/NCBI#",
      "spIn" : "http://localhost:3030/NCBI_SKB/",
      "sourceQuality" : 0.8
    },
    {
      "name" : "CABI",
      "baseUri" : "http://ontology.irstea.fr/agronomictaxon/SKB/CABI#",
      "spIn" : "http://localhost:3030/CABI_SKB/",
      "sourceQuality" : 0.5
    },
    {
      "name" : "ITIS",
      "baseUri" : "http://ontology.irstea.fr/agronomictaxon/SKB/ITIS#",
      "spIn" : "http://localhost:3030/ITIS_SKB/",
      "sourceQuality" : 0.7
    },
    {
      "name" : "NAL",
      "baseUri" : "http://ontology.irstea.fr/agronomictaxon/SKB/NAL#",
      "spIn" : "http://localhost:3030/NAL_SKB/",
      "sourceQuality" : 0.7
    }
  ],
  "relImps" :
  [
    "http://ontology.irstea.fr/agronomictaxon/core#hasHigherRank"
  ],
  "labelRelImps" :
  [
    "http://www.w3.org/2000/01/rdf-schema#label",
    "http://ontology.irstea.fr/agronomictaxon/core#hasScientificName",
    "http://ontology.irstea.fr/agronomictaxon/core#hasVernacularName"
  ],
  "uriTypeBase" : "http://ontology.irstea.fr/agronomictaxon/core",
  "uriTypeImps" : 
  [
  	"http://ontology.irstea.fr/agronomictaxon/core#Taxon"
  ],
  "output" :
  {
    "spOutProvo" : "http://localhost:3030/Muskca-provo/",
    "provoFile" : "in/prov-o.owl",
    "baseUri" : "http://muskca_system.fr/"
  },
  "aligner" : "logmap_oaei_2015",
  "threshold" : 0.0,
  "x0" : 3.0,
  "gamma" : 3.0,
  "bestExt" : false,
  "sorted" : false,
  "objFuncTrust" : true
}
