{
  "projectName" : "OAEI",
  "defaultAlignments" : "in/align_oaei_quali",
  "sources" :
  [
    {
      "name" : "ekaw",
      "baseUri" : "http://ekaw#",
      "spIn" : "http://localhost:3030/EKAW-out/",
      "sourceQuality" : 1.0
    },
    {
      "name" : "iasted",
      "baseUri" : "http://iasted#",
      "spIn" : "http://localhost:3030/iasted-out/",
      "sourceQuality" : 1.0
    },
    {
      "name" : "cmt",
      "baseUri" : "http://cmt#",
      "spIn" : "http://localhost:3030/cmt-out/",
      "sourceQuality" : 1.0
    },
    {
      "name" : "conference",
      "baseUri" : "http://conference#",
      "spIn" : "http://localhost:3030/conference-out/",
      "sourceQuality" : 1.0
    },
    {
      "name" : "confof",
      "baseUri" : "http://confOf#",
      "spIn" : "http://localhost:3030/confof-out/",
      "sourceQuality" : 1.0
    },
    {
      "name" : "edas",
      "baseUri" : "http://edas#",
      "spIn" : "http://localhost:3030/edas-out/",
      "sourceQuality" : 1.0
    },
    {
      "name" : "sigkdd",
      "baseUri" : "http://sigkdd#",
      "spIn" : "http://localhost:3030/sigkdd-out/",
      "sourceQuality" : 1.0
    }
  ],
  "relImps" :
  [
    "http://www.w3.org/1999/02/22-rdf-syntax-ns#type",
    "http://www.w3.org/2000/01/rdf-schema#subClassOf"
  ],
  "labelRelImps" :
  [
  ],
  "uriTypeBase" : "http://",
  "uriTypeImps" : 
  [],
  "output" :
  {
    "spOutProvo" : "http://localhost:3030/OAEI_allcands_AutoMap/",
    "provoFile" : "in/prov-o.owl",
    "baseUri" : "http://muskca_system.fr/"
  },
  "aligner" : "logmap2",
  "threshold" : 0.0,
  "x0" : 3.5,
  "gamma" : 3.5
}
